[
  {
    "name": "Jhinga",
    "price": 42
  },
  {
    "name": "Chichinga ",
    "price": 75
  },
  {
    "name": "Fulkopi",
    "price": 53
  },
  {
    "name": "Aloo",
    "price": 40
  },
  {
    "name": "Toamaatar",
    "price": 120
  },
  {
    "name": "Mulo",
    "price": 90
  },
  {
    "name": "Karola",
    "price": 95
  },
  {
    "name": "Lau",
    "price": 90
  },
  {
    "name": "Kumro",
    "price": 35
  },
  {
    "name": "Sausha",
    "price": 68
  },
  {
    "name": "Pyajj",
    "price": 200
  }
]
